<?xml version="1.0" standalone="no"?>
<!DOCTYPE svg PUBLIC "-//W3C//DTD SVG 20010904//EN"
 "http://www.w3.org/TR/2001/REC-SVG-20010904/DTD/svg10.dtd">
<svg version="1.0" xmlns="http://www.w3.org/2000/svg"
 width="640.000000pt" height="640.000000pt" viewBox="0 0 640.000000 640.000000"
 preserveAspectRatio="xMidYMid meet">
<metadata>
Created by potrace 1.11, written by Peter Selinger 2001-2013
</metadata>
<g transform="translate(0.000000,640.000000) scale(0.100000,-0.100000)"
fill="#000000" stroke="none">
<path d="M260 3200 l0 -3200 2945 0 2945 0 0 3200 0 3200 -2945 0 -2945 0 0
-3200z m5630 0 l0 -3030 -2685 0 -2685 0 0 3030 0 3030 2685 0 2685 0 0 -3030z"/>
<path d="M2470 4675 l0 -735 -735 0 -735 0 0 -740 0 -740 735 0 735 0 0 -735
0 -735 735 0 735 0 0 735 0 735 735 0 735 0 0 740 0 740 -735 0 -735 0 0 735
0 735 -735 0 -735 0 0 -735z"/>
</g>
</svg>
